<svg width="48" height="48" viewBox="0 0 48 48" fill="none" xmlns="http://www.w3.org/2000/svg">
<circle cx="24" cy="24" r="24" fill="#2892D7"/>
<path d="M12.125 17H35.875" stroke="white"/>
<path d="M12.125 24H35.875" stroke="white"/>
<path d="M12.125 31H35.875" stroke="white"/>
</svg>
